- generic [ref=e2]: "{\"products\":[{\"id\":\"cmqaybjlh002g5gr27mtkd032\",\"name\":\"Converse Chuck 70\",\"description\":\"The Converse Chuck 70 elevates the classic with premium canvas, a cushioned footbed, and vintage-inspired details for superior comfort.\",\"brand\":\"Converse\",\"price\":4995,\"imageUrls\":[\"/images/products/converse/chuck70-1.jpg\",\"/images/products/converse/chuck70-2.jpg\",\"/images/products/converse/chuck70-3.jpg\",\"/images/products/converse/chuck70-4.jpg\"],\"imageUrl\":\"/images/products/converse/chuck70-1.jpg\"},{\"id\":\"cmqaybjl600285gr2qulag9h0\",\"name\":\"Converse Chuck Taylor All Star\",\"description\":\"The Converse Chuck Taylor All Star is the original basketball shoe turned cultural icon with its timeless canvas design and rubber toe cap.\",\"brand\":\"Converse\",\"price\":3495,\"imageUrls\":[\"/images/products/converse/chuck-1.jpg\",\"/images/products/converse/chuck-2.jpg\",\"/images/products/converse/chuck-3.jpg\"],\"imageUrl\":\"/images/products/converse/chuck-1.jpg\"},{\"id\":\"cmqaybjkz00205gr2380n465w\",\"name\":\"Vans Sk8-Hi\",\"description\":\"The Vans Sk8-Hi is a high-top skate shoe with the signature side stripe, sturdy canvas and suede upper, and enhanced ankle support.\",\"brand\":\"Vans\",\"price\":4195,\"imageUrls\":[\"/images/products/vans/sk8hi-1.jpg\",\"/images/products/vans/sk8hi-2.jpg\",\"/images/products/vans/sk8hi-3.jpg\",\"/images/products/vans/sk8hi-4.jpg\"],\"imageUrl\":\"/images/products/vans/sk8hi-1.jpg\"},{\"id\":\"cmqaybjkr001s5gr25pxs6mhk\",\"name\":\"Vans Old Skool\",\"description\":\"The Vans Old Skool is a classic skate shoe featuring the iconic side stripe, canvas and suede upper, and padded collar for support.\",\"brand\":\"Vans\",\"price\":3795,\"imageUrls\":[\"/images/products/vans/oldskool-1.jpg\",\"/images/products/vans/oldskool-2.jpg\",\"/images/products/vans/oldskool-3.jpg\"],\"imageUrl\":\"/images/products/vans/oldskool-1.jpg\"},{\"id\":\"cmqaybjkg001k5gr2vtl4o8go\",\"name\":\"New Balance 990v5\",\"description\":\"The New Balance 990v5 offers premium comfort with its ENCAP midsole technology and pigskin suede upper, crafted in the USA.\",\"brand\":\"New Balance\",\"price\":11995,\"imageUrls\":[\"/images/products/new-balance/990v5-1.jpg\",\"/images/products/new-balance/990v5-2.jpg\",\"/images/products/new-balance/990v5-3.jpg\",\"/images/products/new-balance/990v5-4.jpg\"],\"imageUrl\":\"/images/products/new-balance/990v5-1.jpg\"},{\"id\":\"cmqaybjk6001c5gr295e0ubze\",\"name\":\"New Balance 550\",\"description\":\"The New Balance 550 is a retro basketball sneaker that combines vintage aesthetics with modern comfort and durability.\",\"brand\":\"New Balance\",\"price\":6295,\"imageUrls\":[\"/images/products/new-balance/nb550-1.jpg\",\"/images/products/new-balance/nb550-2.jpg\",\"/images/products/new-balance/nb550-3.jpg\"],\"imageUrl\":\"/images/products/new-balance/nb550-1.jpg\"},{\"id\":\"cmqaybjk000145gr2dd8x4nyn\",\"name\":\"Adidas Campus 00s\",\"description\":\"The Adidas Campus 00s brings back the early 2000s vibe with a chunky silhouette, suede upper, and classic branding.\",\"brand\":\"Adidas\",\"price\":5495,\"imageUrls\":[\"/images/products/adidas/campus-1.jpg\",\"/images/products/adidas/campus-2.jpg\",\"/images/products/adidas/campus-3.jpg\"],\"imageUrl\":\"/images/products/adidas/campus-1.jpg\"},{\"id\":\"cmqaybjjs000w5gr2nytddjs4\",\"name\":\"Adidas Stan Smith\",\"description\":\"The Adidas Stan Smith is a timeless tennis shoe with a clean, minimalist design that pairs perfectly with any outfit.\",\"brand\":\"Adidas\",\"price\":4595,\"imageUrls\":[\"/images/products/adidas/stansmith-1.jpg\",\"/images/products/adidas/stansmith-2.jpg\",\"/images/products/adidas/stansmith-3.jpg\",\"/images/products/adidas/stansmith-4.jpg\"],\"imageUrl\":\"/images/products/adidas/stansmith-1.jpg\"}],\"total\":12,\"page\":1,\"totalPages\":2}"